…
## group_by()

``` r
weather_df |> 
  group_by(name)
```

    ## # A tibble: 2,190 × 7
    ## # Groups:   name [3]
    ##    name           id          date        prcp  tmin  tmax month     
    ##    <chr>          <chr>       <date>     <dbl> <dbl> <dbl> <date>    
    ##  1 CentralPark_NY USW00094728 2021-01-01   157   0.6   4.4 2021-01-01
    ##  2 CentralPark_NY USW00094728 2021-01-02    13   2.2  10.6 2021-01-01
    ##  3 CentralPark_NY USW00094728 2021-01-03    56   1.1   3.3 2021-01-01
    ##  4 CentralPark_NY USW00094728 2021-01-04     5   1.7   6.1 2021-01-01
    ##  5 CentralPark_NY USW00094728 2021-01-05     0   2.2   5.6 2021-01-01
    ##  6 CentralPark_NY USW00094728 2021-01-06     0   1.1   5   2021-01-01
    ##  7 CentralPark_NY USW00094728 2021-01-07     0  -1     5   2021-01-01
    ##  8 CentralPark_NY USW00094728 2021-01-08     0  -2.7   2.8 2021-01-01
    ##  9 CentralPark_NY USW00094728 2021-01-09     0  -4.3   2.8 2021-01-01
    ## 10 CentralPark_NY USW00094728 2021-01-10     0  -1.6   5   2021-01-01
    ## # ℹ 2,180 more rows
…
``` r
weather_df |> 
  group_by(name, month) |> 
  summarize(n_obs = n())
```

    ## `summarise()` has grouped output by 'name'. You can override using the
    ## `.groups` argument.

    ## # A tibble: 72 × 3
    ## # Groups:   name [3]
    ##    name           month      n_obs
    ##    <chr>          <date>     <int>
    ##  1 CentralPark_NY 2021-01-01    31
    ##  2 CentralPark_NY 2021-02-01    28
    ##  3 CentralPark_NY 2021-03-01    31
    ##  4 CentralPark_NY 2021-04-01    30
    ##  5 CentralPark_NY 2021-05-01    31
    ##  6 CentralPark_NY 2021-06-01    30
    ##  7 CentralPark_NY 2021-07-01    31
    ##  8 CentralPark_NY 2021-08-01    31
    ##  9 CentralPark_NY 2021-09-01    30
    ## 10 CentralPark_NY 2021-10-01    31
    ## # ℹ 62 more rows
…
